Standard Preprocessing Map — std_pmap • chevron
…
    std_pmap.Rd

    The preprocessing map contains information how the ADaM data needs to be preprocessed for each function.

std_pmap

    Format

    An object of class tbl_df (inherits from tbl, data.frame) with 26 rows and 4 columns.

    Examples

std_pmap
#> # A tibble: 26 × 4
#>    tlgfname filter_fname        mutate_fname     req_data 
#>    <chr>    <chr>               <chr>            <list>   
#>  1 aet01_1  filter_adae_anl01fl mutate_for_aet01 <chr [2]>
#>  2 aet01_2  filter_adae_anl01fl mutate_for_aet01 <chr [2]>
#>  3 aet02_1  filter_adae_anl01fl NA               <chr [2]>
#>  4 aet02_2  filter_adae_anl01fl NA               <chr [2]>
#>  5 aet02_3  filter_adae_anl01fl NA               <chr [2]>
#>  6 aet03_1  filter_adae_anl01fl NA               <chr [2]>
#>  7 aet04_1  filter_adae_anl01fl NA               <chr [2]>
#>  8 cmt01a_1 filter_adcm_anl01fl mutate_cmt01a    <chr [2]>
#>  9 cmt01a_2 filter_adcm_anl01fl mutate_cmt01a    <chr [2]>
#> 10 cmt01a_3 filter_adcm_anl01fl mutate_cmt01a    <chr [2]>
#> # … with 16 more rows
…
