The `adam_db` argument • chevron
…
Get Analysis Data

Vertical Analysis Data

For standard outputs we do know which data and variables we need to
create a TLG.

adam_study_data %>%
  dm_join_to_tbl(adae, adsl) %>%
  select(AESEQ, ARM, SEX)
#> Warning: `dm_join_to_tbl()` was deprecated in dm 0.3.0.
#> Please use `dm_flatten_to_tbl()` instead.
#> # A tibble: 1,934 × 3
#>    AESEQ ARM            SEX  
#>    <int> <fct>          <fct>
#>  1     1 A: Drug X      M    
#>  2     2 A: Drug X      M    
#>  3     3 A: Drug X      M    
#>  4     4 A: Drug X      M    
#>  5     1 C: Combination F    
#>  6     2 C: Combination F    
#>  7     3 C: Combination F    
#>  8     4 C: Combination F    
#>  9     5 C: Combination F    
#> 10     6 C: Combination F    
#> # … with 1,924 more rows
…
adsub_wide <- adam_study_data$adsub %>%
  filter(PARAMCD %in% c("BWGHTSI", "BECOG")) %>%
  select(USUBJID, STUDYID, PARAMCD, AVAL, AVALU) %>%
  pivot_wider(names_from = PARAMCD, values_from = c(AVAL, AVALU))

dm_add_tbl(adam_study_data, adsub_wide) %>%
  dm_add_fk(adsub_wide, c("USUBJID", "STUDYID"), ref_table = "adsl") %>%
  dm_add_pk(adsub_wide, c("USUBJID", "STUDYID")) %>%
  dm_join_to_tbl(adsl, adsub_wide)
#> Warning: `dm_join_to_tbl()` was deprecated in dm 0.3.0.
#> Please use `dm_flatten_to_tbl()` instead.
#> Warning: `dm_add_tbl()` was deprecated in dm 1.0.0.
#> Please use `dm()` instead.
#> Use `.name_repair = "unique"` if necessary.
#> # A tibble: 400 × 49
#>    USUBJID     STUDYID AVAL_…¹ AVAL_…² AVALU…³ AVALU…⁴ SUBJID SITEID   AGE SEX  
#>    <chr>       <chr>     <dbl>   <dbl> <fct>   <fct>   <chr>  <chr>  <int> <fct>
#>  1 AB12345-BR… AB12345    62.5       3 kg      ""      id-105 BRA-1     38 M    
#>  2 AB12345-BR… AB12345    98.8       3 kg      ""      id-134 BRA-1     47 M    
#>  3 AB12345-BR… AB12345    49.6       1 kg      ""      id-141 BRA-1     35 F    
#>  4 AB12345-BR… AB12345   162.        3 kg      ""      id-236 BRA-1     32 M    
#>  5 AB12345-BR… AB12345   105.        2 kg      ""      id-265 BRA-1     25 M    
#>  6 AB12345-BR… AB12345    53.8       4 kg      ""      id-42  BRA-1     36 M    
#>  7 AB12345-BR… AB12345    60.6       3 kg      ""      id-65  BRA-1     25 F    
#>  8 AB12345-BR… AB12345    63.8       4 kg      ""      id-93  BRA-1     34 F    
#>  9 AB12345-BR… AB12345   144.        3 kg      ""      id-171 BRA-11    40 F    
#> 10 AB12345-BR… AB12345    76.9       3 kg      ""      id-217 BRA-11    43 M    
#> # … with 390 more rows, 39 more variables: RACE <fct>, COUNTRY <fct>,
#> #   DTHFL <fct>, INVID <chr>, INVNAM <chr>, ARM <fct>, ARMCD <fct>,
#> #   ACTARM <fct>, ACTARMCD <fct>, REGION1 <fct>, STRATA1 <fct>, STRATA2 <fct>,
#> #   BMRKR1 <dbl>, BMRKR2 <fct>, ITTFL <fct>, SAFFL <fct>, BMEASIFL <fct>,
#> #   BEP01FL <fct>, RANDDT <date>, TRTSDTM <dttm>, TRTEDTM <dttm>, EOSSTT <fct>,
#> #   EOSDT <date>, EOSDY <int>, DCSREAS <fct>, DTHDT <date>, DTHCAUS <fct>,
#> #   DTHCAT <fct>, LDDTHELD <int>, LDDTHGR1 <fct>, LSTALVDT <date>, …
…
