The adam_db Argument • chevron
…
Get Analysis Data

Vertical Analysis Data

For standard outputs we do know which data and variables we need to create a TLG.

adam_study_data %>%
  dm_join_to_tbl(adae, adsl) %>%
  select(AESEQ, ARM, SEX)
#> # A tibble: 1,934 × 3
#>    AESEQ ARM            SEX  
#>    <int> <fct>          <fct>
#>  1     1 A: Drug X      M    
#>  2     2 A: Drug X      M    
#>  3     3 A: Drug X      M    
#>  4     4 A: Drug X      M    
#>  5     1 C: Combination F    
#>  6     2 C: Combination F    
#>  7     3 C: Combination F    
#>  8     4 C: Combination F    
#>  9     5 C: Combination F    
#> 10     6 C: Combination F    
#> # … with 1,924 more rows
…
Add variables from adsub to adsl:

library(tidyr)

adsub_wide <- adam_study_data$adsub %>%
  filter(PARAMCD %in% c("BWGHTSI", "BECOG")) %>%
  select(USUBJID, STUDYID, PARAMCD, AVAL, AVALU) %>%
  pivot_wider(names_from = PARAMCD, values_from = c(AVAL, AVALU))

dm_add_tbl(adam_study_data, adsub_wide) %>%
  dm_add_fk(adsub_wide, c("USUBJID", "STUDYID"), ref_table = "adsl") %>%
  dm_add_pk(adsub_wide, c("USUBJID", "STUDYID")) %>%
  dm_join_to_tbl(adsl, adsub_wide)
#> # A tibble: 400 × 48
#>    USUBJID      STUDYID AVAL_BWGHTSI AVAL_BECOG AVALU_BWGHTSI AVALU_BECOG SUBJID
#>    <chr>        <chr>          <dbl>      <dbl> <fct>         <fct>       <chr> 
#>  1 AB12345-BRA… AB12345         62.5          3 kg            ""          id-105
#>  2 AB12345-BRA… AB12345         98.8          3 kg            ""          id-134
#>  3 AB12345-BRA… AB12345         49.6          1 kg            ""          id-141
#>  4 AB12345-BRA… AB12345        162.           3 kg            ""          id-236
#>  5 AB12345-BRA… AB12345        105.           2 kg            ""          id-265
#>  6 AB12345-BRA… AB12345         53.8          4 kg            ""          id-42 
#>  7 AB12345-BRA… AB12345         60.6          3 kg            ""          id-65 
#>  8 AB12345-BRA… AB12345         63.8          4 kg            ""          id-93 
#>  9 AB12345-BRA… AB12345        144.           3 kg            ""          id-171
#> 10 AB12345-BRA… AB12345         76.9          3 kg            ""          id-217
#> # … with 390 more rows, and 41 more variables: SITEID <chr>, AGE <int>,
#> #   SEX <fct>, RACE <fct>, COUNTRY <fct>, DTHFL <fct>, INVID <chr>,
#> #   INVNAM <chr>, ARM <fct>, ARMCD <fct>, ACTARM <fct>, ACTARMCD <fct>,
#> #   REGION1 <fct>, STRATA1 <fct>, STRATA2 <fct>, BMRKR1 <dbl>, BMRKR2 <fct>,
#> #   ITTFL <fct>, SAFFL <fct>, BMEASIFL <fct>, BEP01FL <fct>, RANDDT <date>,
#> #   TRTSDTM <dttm>, TRTEDTM <dttm>, EOSSTT <fct>, EOSDT <date>, EOSDY <int>,
#> #   DCSREAS <fct>, DTHDT <date>, DTHCAUS <fct>, DTHCAT <fct>, LDDTHELD <int>, …
…
